<svg width="22" height="25" viewBox="0 0 22 25" fill="none" xmlns="http://www.w3.org/2000/svg">
<path d="M11.0527 24.1015C8.70524 24.1015 6.35783 22.1296 2.60196 18.2799C1.66299 17.247 1.09961 15.463 1.09961 14.4301V5.13431C1.09961 3.91365 2.03858 2.693 3.16534 2.31741C8.23576 0.627269 13.8696 0.627269 19.0339 2.31741C20.1606 2.693 21.0996 3.91365 21.0996 5.13431V14.4301C21.0996 15.5568 20.5362 17.3409 19.5973 18.2799C15.7475 22.1296 13.4001 24.1015 11.0527 24.1015ZM11.0527 1.94182C8.42355 1.94182 5.88834 2.31741 3.35313 3.16248C2.60196 3.44417 1.94468 4.28924 1.94468 5.13431V14.4301C1.94468 15.3691 2.50806 16.8714 3.25923 17.6226C6.82731 21.2845 8.98693 23.1625 11.0527 23.1625C13.1184 23.1625 15.278 21.2845 18.8461 17.6226C19.5973 16.8714 20.1606 15.2752 20.1606 14.4301V5.13431C20.1606 4.28924 19.5034 3.44417 18.7522 3.16248C16.217 2.31741 13.6818 1.94182 11.0527 1.94182Z" fill="#8BD5FF" stroke="#5FA9FF" stroke-width="0.3"/>
<path d="M11.0533 21.2842C9.55094 21.2842 7.01573 18.8428 4.57442 16.3076C4.19883 15.932 3.82324 14.8992 3.82324 14.4297V5.32172C3.82324 5.13393 3.91714 4.94613 4.10493 4.85224C8.61197 3.44379 13.4007 3.44379 17.9078 4.85224C18.0955 4.94613 18.1894 5.13393 18.1894 5.32172V14.3358C18.1894 14.8053 17.8139 15.8382 17.4383 16.3076C14.997 18.8428 12.5556 21.2842 11.0533 21.2842ZM4.76221 5.69731V14.3358C4.76221 14.6175 5.0439 15.4626 5.23169 15.6504C6.64014 17.0588 9.83263 20.3452 11.0533 20.3452C12.2739 20.3452 15.4664 17.0588 16.781 15.6504C16.9688 15.4626 17.2505 14.6175 17.2505 14.3358V5.69731C13.2129 4.47665 8.89366 4.47665 4.76221 5.69731Z" fill="#8BD5FF" stroke="#5FA9FF" stroke-width="0.3"/>
<path d="M11.0515 21.0033C10.7698 21.0033 10.582 20.8155 10.582 20.5338V4.38355C10.582 4.10186 10.7698 3.91406 11.0515 3.91406C11.3332 3.91406 11.521 4.10186 11.521 4.38355V20.5338C11.521 20.7216 11.3332 21.0033 11.0515 21.0033Z" fill="#8BD5FF" stroke="#5FA9FF" stroke-width="0.3"/>
</svg>
