<svg width="24" height="26" viewBox="0 0 24 26" fill="none" xmlns="http://www.w3.org/2000/svg">
<path d="M22.538 25.4092H17.6389C17.3616 25.4092 17.1768 25.2243 17.1768 24.947V10.1575C17.1768 9.88018 17.3616 9.69531 17.6389 9.69531H22.538C22.8153 9.69531 23.0001 9.88018 23.0001 10.1575V24.947C23.0001 25.2243 22.8153 25.4092 22.538 25.4092ZM18.1011 24.4848H22.0758V10.6197H18.1011V24.4848Z" fill="#8BD5FF" stroke="#5FA9FF" stroke-width="0.6"/>
<path d="M14.4966 25.4098H9.50514C9.22784 25.4098 9.04297 25.2249 9.04297 24.9476V16.4436C9.04297 16.1663 9.22784 15.9814 9.50514 15.9814H14.4042C14.6815 15.9814 14.8663 16.1663 14.8663 16.4436V24.9476C14.9588 25.2249 14.7739 25.4098 14.4966 25.4098ZM10.0597 24.4854H14.0344V16.9058H10.0597V24.4854Z" fill="#8BD5FF" stroke="#5FA9FF" stroke-width="0.6"/>
<path d="M6.3612 25.4091H1.46217C1.18487 25.4091 1 25.2243 1 24.947V21.0647C1 20.7874 1.18487 20.6025 1.46217 20.6025H6.3612C6.63851 20.6025 6.82338 20.7874 6.82338 21.0647V24.947C6.82338 25.2243 6.63851 25.4091 6.3612 25.4091ZM1.92435 24.4848H5.89903V21.5269H1.92435V24.4848Z" fill="#8BD5FF" stroke="#5FA9FF" stroke-width="0.6"/>
<path d="M16.3443 8.58641C16.2519 8.58641 16.067 8.58641 15.9746 8.49397C15.7897 8.3091 15.7897 8.0318 15.9746 7.84693L19.2098 4.61172L15.9746 1.37651C15.7897 1.19164 15.7897 0.914341 15.9746 0.729472C16.1595 0.544603 16.4368 0.544603 16.6216 0.729472L20.2266 4.24198C20.4114 4.42685 20.4114 4.70416 20.2266 4.88903L16.6216 8.49397C16.5292 8.58641 16.4368 8.58641 16.3443 8.58641Z" fill="#8BD5FF" stroke="#5FA9FF" stroke-width="0.6"/>
<path d="M4.14284 17.0912C4.14284 17.0912 4.0504 17.0912 4.14284 17.0912C3.7731 16.9988 3.68066 16.8139 3.68066 16.5366C5.06718 9.32672 11.3527 4.15039 18.6551 4.15039C18.9324 4.15039 19.1172 4.33526 19.1172 4.61256C19.1172 4.88987 18.9324 5.07474 18.6551 5.07474C11.8149 5.07474 5.99153 9.97377 4.60501 16.7215C4.51257 16.9064 4.32771 17.0912 4.14284 17.0912Z" fill="#8BD5FF" stroke="#5FA9FF" stroke-width="0.6"/>
</svg>
