<svg width="17" height="15" viewBox="0 0 17 15" fill="none" xmlns="http://www.w3.org/2000/svg">
<path d="M11.8889 12.612H8.61457L6.43171 14.4211H4.24885V12.612H0.25V2.98642L1.33684 0.578125H16.25V9.00526L11.8889 12.612ZM14.8009 8.40224V1.78417H2.79514V10.5109H6.06943V12.3162L8.25229 10.5109H12.2511L14.8009 8.40224Z" fill="white"/>
<path d="M10.7928 4.19141V7.80579H12.2511V4.19141H10.7928ZM6.79395 7.7982H8.25224V4.19141H6.79395V7.7982Z" fill="white"/>
</svg>
